Longitud;Latitud;Estaciones;Marea;ABUN;NH4;NO2;NO3;PO4;SiO2;Clorofila;SST;Sal;pH;Trans;OD
-77,32536;3,97272;M1A;Alta;140;4,63;0,15;0,24;0,22;9,62;2,26;52,30;25,70;8,15;1,50;6,60
-77,32061;3,89664;M2A;Alta;140;4,30;0,17;0;0,18;10,62;3,61;75,10;25,00;8,16;1,50;6,70
-77,35525;3,90114;M3A;Alta;60;3,99;0,10;0;0,20;10,34;2,65;40,30;25,30;8,18;2,00;6,82
-77,32536;3,92775;M4A;Alta;60;7,15;0,19;0;0,15;11,52;3,32;39,10;25,30;8,14;1,30;6,62
-77,33739;3,93908;M5A;Alta;80;5,76;0,08;0,19;0,17;9,71;0,38;40,40;25,90;8,15;2,50;6,71
-77,27608;3,99153;M6A;Alta;200;5,11;0,11;0;0;13,25;0,31;43,80;23,10;8,09;2,30;6,72
-77,06667;3,86667;B1A;Alta;240;0,48;1,01;0,82;0,23;50,37;8,86;30,50;15,90;7,90;1,50;6,91
-77,06750;3,89417;B2A;Alta;300;9,49;2,62;0,75;2,68;38,75;5,43;41,20;16,00;7,74;1,70;5,86
-77,08167;3,89200;B3A;Alta;40;1,20;2,48;1,59;0,21;45,47;5,45;59,10;15,90;7,80;1,50;6,38
-77,11167;3,86000;B4A;Alta;40;10,91;0,91;0,81;1,77;23,59;0;0;18,80;7,99;2,10;6,67
-77,13200;3,84917;B5A;Alta;860;8,89;2,81;2,84;0,25;60,08;3,73;52,35;14,60;7,64;1,50;5,34
-77,14550;3,84083;B6A;Alta;140;0;0,40;0,45;0,20;18,87;7,90;41,25;20,90;7,94;1,80;6,70
-77,14033;3,82083;B7A;Alta;20;2,94;0,94;0,86;0,20;21,32;6,08;42,50;20,60;7,98;1,30;6,68
-77,06194;3,88972;B8A;Alta;340;5,43;2,13;1,80;0,37;34,48;5,77;47,00;15,85;7,74;1,80;5,94
